^C:\USERS\RIAD\DOCUMENTS\VISUAL STUDIO 2013\PROJECTS\GE_15_REPOSITORY\SRC\BIN\RELEASE\INTERMEDIATE\BOUNDINGVOLUME.OBJ|C:\USERS\RIAD\DOCUMENTS\VISUAL STUDIO 2013\PROJECTS\GE_15_REPOSITORY\SRC\BIN\RELEASE\INTERMEDIATE\BUTTON.OBJ|C:\USERS\RIAD\DOCUMENTS\VISUAL STUDIO 2013\PROJECTS\GE_15_REPOSITORY\SRC\BIN\RELEASE\INTERMEDIATE\CAMERA.OBJ|C:\USERS\RIAD\DOCUMENTS\VISUAL STUDIO 2013\PROJECTS\GE_15_REPOSITORY\SRC\BIN\RELEASE\INTERMEDIATE\DIRECTIONALLIGHT.OBJ|C:\USERS\RIAD\DOCUMENTS\VISUAL STUDIO 2013\PROJECTS\GE_15_REPOSITORY\SRC\BIN\RELEASE\INTERMEDIATE\DRAWABLE.OBJ|C:\USERS\RIAD\DOCUMENTS\VISUAL STUDIO 2013\PROJECTS\GE_15_REPOSITORY\SRC\BIN\RELEASE\INTERMEDIATE\GIZMO.OBJ|C:\USERS\RIAD\DOCUMENTS\VISUAL STUDIO 2013\PROJECTS\GE_15_REPOSITORY\SRC\BIN\RELEASE\INTERMEDIATE\IBO.OBJ|C:\USERS\RIAD\DOCUMENTS\VISUAL STUDIO 2013\PROJECTS\GE_15_REPOSITORY\SRC\BIN\RELEASE\INTERMEDIATE\INPUT.OBJ|C:\USERS\RIAD\DOCUMENTS\VISUAL STUDIO 2013\PROJECTS\GE_15_REPOSITORY\SRC\BIN\RELEASE\INTERMEDIATE\LIGHT.OBJ|C:\USERS\RIAD\DOCUMENTS\VISUAL STUDIO 2013\PROJECTS\GE_15_REPOSITORY\SRC\BIN\RELEASE\INTERMEDIATE\LOGGER.OBJ|C:\USERS\RIAD\DOCUMENTS\VISUAL STUDIO 2013\PROJECTS\GE_15_REPOSITORY\SRC\BIN\RELEASE\INTERMEDIATE\MAIN.OBJ|C:\USERS\RIAD\DOCUMENTS\VISUAL STUDIO 2013\PROJECTS\GE_15_REPOSITORY\SRC\BIN\RELEASE\INTERMEDIATE\MENUWINDOW.OBJ|C:\USERS\RIAD\DOCUMENTS\VISUAL STUDIO 2013\PROJECTS\GE_15_REPOSITORY\SRC\BIN\RELEASE\INTERMEDIATE\MESH.OBJ|C:\USERS\RIAD\DOCUMENTS\VISUAL STUDIO 2013\PROJECTS\GE_15_REPOSITORY\SRC\BIN\RELEASE\INTERMEDIATE\MODEL.OBJ|C:\USERS\RIAD\DOCUMENTS\VISUAL STUDIO 2013\PROJECTS\GE_15_REPOSITORY\SRC\BIN\RELEASE\INTERMEDIATE\OBJECTMANAGER.OBJ|C:\USERS\RIAD\DOCUMENTS\VISUAL STUDIO 2013\PROJECTS\GE_15_REPOSITORY\SRC\BIN\RELEASE\INTERMEDIATE\PANEL.OBJ|C:\USERS\RIAD\DOCUMENTS\VISUAL STUDIO 2013\PROJECTS\GE_15_REPOSITORY\SRC\BIN\RELEASE\INTERMEDIATE\POINTLIGHT.OBJ|C:\USERS\RIAD\DOCUMENTS\VISUAL STUDIO 2013\PROJECTS\GE_15_REPOSITORY\SRC\BIN\RELEASE\INTERMEDIATE\RAY.OBJ|C:\USERS\RIAD\DOCUMENTS\VISUAL STUDIO 2013\PROJECTS\GE_15_REPOSITORY\SRC\BIN\RELEASE\INTERMEDIATE\RENDERER.OBJ|C:\USERS\RIAD\DOCUMENTS\VISUAL STUDIO 2013\PROJECTS\GE_15_REPOSITORY\SRC\BIN\RELEASE\INTERMEDIATE\RENDERSHADER.OBJ|C:\USERS\RIAD\DOCUMENTS\VISUAL STUDIO 2013\PROJECTS\GE_15_REPOSITORY\SRC\BIN\RELEASE\INTERMEDIATE\SCENECAMERA.OBJ|C:\USERS\RIAD\DOCUMENTS\VISUAL STUDIO 2013\PROJECTS\GE_15_REPOSITORY\SRC\BIN\RELEASE\INTERMEDIATE\SCENESHADER.OBJ|C:\USERS\RIAD\DOCUMENTS\VISUAL STUDIO 2013\PROJECTS\GE_15_REPOSITORY\SRC\BIN\RELEASE\INTERMEDIATE\SHADER.OBJ|C:\USERS\RIAD\DOCUMENTS\VISUAL STUDIO 2013\PROJECTS\GE_15_REPOSITORY\SRC\BIN\RELEASE\INTERMEDIATE\SPRITE.OBJ|C:\USERS\RIAD\DOCUMENTS\VISUAL STUDIO 2013\PROJECTS\GE_15_REPOSITORY\SRC\BIN\RELEASE\INTERMEDIATE\TIMER.OBJ|C:\USERS\RIAD\DOCUMENTS\VISUAL STUDIO 2013\PROJECTS\GE_15_REPOSITORY\SRC\BIN\RELEASE\INTERMEDIATE\WINDOW.OBJ
C:\USERS\RIAD\DOCUMENTS\VISUAL STUDIO 2013\PROJECTS\GE_15_REPOSITORY\SRC\DEPENDENCIES\GLFW\LIB\GLFW3.LIB
C:\USERS\RIAD\DOCUMENTS\VISUAL STUDIO 2013\PROJECTS\GE_15_REPOSITORY\SRC\DEPENDENCIES\GLEW\LIB\GLEW32S.LIB
C:\PROGRAM FILES (X86)\WINDOWS KITS\8.1\LIB\WINV6.3\UM\X86\OPENGL32.LIB
C:\USERS\RIAD\DOCUMENTS\VISUAL STUDIO 2013\PROJECTS\GE_15_REPOSITORY\SRC\DEPENDENCIES\ASSIMP\LIB\ASSIMPD.LIB
C:\USERS\RIAD\DOCUMENTS\VISUAL STUDIO 2013\PROJECTS\GE_15_REPOSITORY\SRC\DEPENDENCIES\SOIL\LIB\SOIL.LIB
C:\PROGRAM FILES (X86)\WINDOWS KITS\8.1\LIB\WINV6.3\UM\X86\KERNEL32.LIB
C:\PROGRAM FILES (X86)\WINDOWS KITS\8.1\LIB\WINV6.3\UM\X86\USER32.LIB
C:\PROGRAM FILES (X86)\WINDOWS KITS\8.1\LIB\WINV6.3\UM\X86\GDI32.LIB
C:\PROGRAM FILES (X86)\WINDOWS KITS\8.1\LIB\WINV6.3\UM\X86\WINSPOOL.LIB
C:\PROGRAM FILES (X86)\WINDOWS KITS\8.1\LIB\WINV6.3\UM\X86\COMDLG32.LIB
C:\PROGRAM FILES (X86)\WINDOWS KITS\8.1\LIB\WINV6.3\UM\X86\ADVAPI32.LIB
C:\PROGRAM FILES (X86)\WINDOWS KITS\8.1\LIB\WINV6.3\UM\X86\SHELL32.LIB
C:\PROGRAM FILES (X86)\WINDOWS KITS\8.1\LIB\WINV6.3\UM\X86\OLE32.LIB
C:\PROGRAM FILES (X86)\WINDOWS KITS\8.1\LIB\WINV6.3\UM\X86\OLEAUT32.LIB
C:\PROGRAM FILES (X86)\WINDOWS KITS\8.1\LIB\WINV6.3\UM\X86\UUID.LIB
C:\PROGRAM FILES (X86)\WINDOWS KITS\8.1\LIB\WINV6.3\UM\X86\ODBC32.LIB
C:\PROGRAM FILES (X86)\WINDOWS KITS\8.1\LIB\WINV6.3\UM\X86\ODBCCP32.LIB
C:\USERS\RIAD\DOCUMENTS\VISUAL STUDIO 2013\PROJECTS\GE_15_REPOSITORY\SRC\BIN\RELEASE\INTERMEDIATE\BOUNDINGVOLUME.OBJ
C:\USERS\RIAD\DOCUMENTS\VISUAL STUDIO 2013\PROJECTS\GE_15_REPOSITORY\SRC\BIN\RELEASE\INTERMEDIATE\BUTTON.OBJ
C:\USERS\RIAD\DOCUMENTS\VISUAL STUDIO 2013\PROJECTS\GE_15_REPOSITORY\SRC\BIN\RELEASE\INTERMEDIATE\CAMERA.OBJ
C:\USERS\RIAD\DOCUMENTS\VISUAL STUDIO 2013\PROJECTS\GE_15_REPOSITORY\SRC\BIN\RELEASE\INTERMEDIATE\DIRECTIONALLIGHT.OBJ
C:\USERS\RIAD\DOCUMENTS\VISUAL STUDIO 2013\PROJECTS\GE_15_REPOSITORY\SRC\BIN\RELEASE\INTERMEDIATE\DRAWABLE.OBJ
C:\USERS\RIAD\DOCUMENTS\VISUAL STUDIO 2013\PROJECTS\GE_15_REPOSITORY\SRC\BIN\RELEASE\INTERMEDIATE\GIZMO.OBJ
C:\USERS\RIAD\DOCUMENTS\VISUAL STUDIO 2013\PROJECTS\GE_15_REPOSITORY\SRC\BIN\RELEASE\INTERMEDIATE\IBO.OBJ
C:\USERS\RIAD\DOCUMENTS\VISUAL STUDIO 2013\PROJECTS\GE_15_REPOSITORY\SRC\BIN\RELEASE\INTERMEDIATE\INPUT.OBJ
C:\USERS\RIAD\DOCUMENTS\VISUAL STUDIO 2013\PROJECTS\GE_15_REPOSITORY\SRC\BIN\RELEASE\INTERMEDIATE\LIGHT.OBJ
C:\USERS\RIAD\DOCUMENTS\VISUAL STUDIO 2013\PROJECTS\GE_15_REPOSITORY\SRC\BIN\RELEASE\INTERMEDIATE\LOGGER.OBJ
C:\USERS\RIAD\DOCUMENTS\VISUAL STUDIO 2013\PROJECTS\GE_15_REPOSITORY\SRC\BIN\RELEASE\INTERMEDIATE\MAIN.OBJ
C:\USERS\RIAD\DOCUMENTS\VISUAL STUDIO 2013\PROJECTS\GE_15_REPOSITORY\SRC\BIN\RELEASE\INTERMEDIATE\MENUWINDOW.OBJ
C:\USERS\RIAD\DOCUMENTS\VISUAL STUDIO 2013\PROJECTS\GE_15_REPOSITORY\SRC\BIN\RELEASE\INTERMEDIATE\MESH.OBJ
C:\USERS\RIAD\DOCUMENTS\VISUAL STUDIO 2013\PROJECTS\GE_15_REPOSITORY\SRC\BIN\RELEASE\INTERMEDIATE\MODEL.OBJ
C:\USERS\RIAD\DOCUMENTS\VISUAL STUDIO 2013\PROJECTS\GE_15_REPOSITORY\SRC\BIN\RELEASE\INTERMEDIATE\OBJECTMANAGER.OBJ
C:\USERS\RIAD\DOCUMENTS\VISUAL STUDIO 2013\PROJECTS\GE_15_REPOSITORY\SRC\BIN\RELEASE\INTERMEDIATE\PANEL.OBJ
C:\USERS\RIAD\DOCUMENTS\VISUAL STUDIO 2013\PROJECTS\GE_15_REPOSITORY\SRC\BIN\RELEASE\INTERMEDIATE\POINTLIGHT.OBJ
C:\USERS\RIAD\DOCUMENTS\VISUAL STUDIO 2013\PROJECTS\GE_15_REPOSITORY\SRC\BIN\RELEASE\INTERMEDIATE\RAY.OBJ
C:\USERS\RIAD\DOCUMENTS\VISUAL STUDIO 2013\PROJECTS\GE_15_REPOSITORY\SRC\BIN\RELEASE\INTERMEDIATE\RENDERER.OBJ
C:\USERS\RIAD\DOCUMENTS\VISUAL STUDIO 2013\PROJECTS\GE_15_REPOSITORY\SRC\BIN\RELEASE\INTERMEDIATE\RENDERSHADER.OBJ
C:\USERS\RIAD\DOCUMENTS\VISUAL STUDIO 2013\PROJECTS\GE_15_REPOSITORY\SRC\BIN\RELEASE\INTERMEDIATE\SCENECAMERA.OBJ
C:\USERS\RIAD\DOCUMENTS\VISUAL STUDIO 2013\PROJECTS\GE_15_REPOSITORY\SRC\BIN\RELEASE\INTERMEDIATE\SCENESHADER.OBJ
C:\USERS\RIAD\DOCUMENTS\VISUAL STUDIO 2013\PROJECTS\GE_15_REPOSITORY\SRC\BIN\RELEASE\INTERMEDIATE\SHADER.OBJ
C:\USERS\RIAD\DOCUMENTS\VISUAL STUDIO 2013\PROJECTS\GE_15_REPOSITORY\SRC\BIN\RELEASE\INTERMEDIATE\SPRITE.OBJ
C:\USERS\RIAD\DOCUMENTS\VISUAL STUDIO 2013\PROJECTS\GE_15_REPOSITORY\SRC\BIN\RELEASE\INTERMEDIATE\TIMER.OBJ
C:\USERS\RIAD\DOCUMENTS\VISUAL STUDIO 2013\PROJECTS\GE_15_REPOSITORY\SRC\BIN\RELEASE\INTERMEDIATE\WINDOW.OBJ
C:\WINDOWS\GLOBALIZATION\SORTING\SORTDEFAULT.NLS
C:\PROGRAM FILES (X86)\MICROSOFT VISUAL STUDIO 12.0\VC\BIN\C2.DLL
C:\PROGRAM FILES (X86)\MICROSOFT VISUAL STUDIO 12.0\VC\BIN\1033\LINKUI.DLL
C:\PROGRAM FILES (X86)\MICROSOFT VISUAL STUDIO 12.0\VC\LIB\MSVCPRT.LIB
C:\PROGRAM FILES (X86)\MICROSOFT VISUAL STUDIO 12.0\VC\LIB\MSVCRT.LIB
C:\PROGRAM FILES (X86)\MICROSOFT VISUAL STUDIO 12.0\VC\LIB\OLDNAMES.LIB
C:\PROGRAM FILES (X86)\MICROSOFT VISUAL STUDIO 12.0\VC\LIB\LIBCMT.LIB
C:\PROGRAM FILES (X86)\MICROSOFT VISUAL STUDIO 12.0\VC\LIB\MSVCRTD.LIB
C:\PROGRAM FILES (X86)\WINDOWS KITS\8.1\BIN\X86\RC.EXE
C:\PROGRAM FILES (X86)\MICROSOFT VISUAL STUDIO 12.0\VC\BIN\CVTRES.EXE
C:\WINDOWS\SYSTEM32\TZRES.DLL
C:\PROGRAM FILES (X86)\MICROSOFT VISUAL STUDIO 12.0\VC\BIN\1033\CLUI.DLL
^C:\USERS\RIAD\DOCUMENTS\VISUAL STUDIO 2013\PROJECTS\GE_15_GIT_REPO\SRC\BIN\RELEASE\INTERMEDIATE\BOUNDINGVOLUME.OBJ|C:\USERS\RIAD\DOCUMENTS\VISUAL STUDIO 2013\PROJECTS\GE_15_GIT_REPO\SRC\BIN\RELEASE\INTERMEDIATE\BUTTON.OBJ|C:\USERS\RIAD\DOCUMENTS\VISUAL STUDIO 2013\PROJECTS\GE_15_GIT_REPO\SRC\BIN\RELEASE\INTERMEDIATE\CAMERA.OBJ|C:\USERS\RIAD\DOCUMENTS\VISUAL STUDIO 2013\PROJECTS\GE_15_GIT_REPO\SRC\BIN\RELEASE\INTERMEDIATE\DIRECTIONALLIGHT.OBJ|C:\USERS\RIAD\DOCUMENTS\VISUAL STUDIO 2013\PROJECTS\GE_15_GIT_REPO\SRC\BIN\RELEASE\INTERMEDIATE\DRAWABLE.OBJ|C:\USERS\RIAD\DOCUMENTS\VISUAL STUDIO 2013\PROJECTS\GE_15_GIT_REPO\SRC\BIN\RELEASE\INTERMEDIATE\GIZMO.OBJ|C:\USERS\RIAD\DOCUMENTS\VISUAL STUDIO 2013\PROJECTS\GE_15_GIT_REPO\SRC\BIN\RELEASE\INTERMEDIATE\IBO.OBJ|C:\USERS\RIAD\DOCUMENTS\VISUAL STUDIO 2013\PROJECTS\GE_15_GIT_REPO\SRC\BIN\RELEASE\INTERMEDIATE\INPUT.OBJ|C:\USERS\RIAD\DOCUMENTS\VISUAL STUDIO 2013\PROJECTS\GE_15_GIT_REPO\SRC\BIN\RELEASE\INTERMEDIATE\LIGHT.OBJ|C:\USERS\RIAD\DOCUMENTS\VISUAL STUDIO 2013\PROJECTS\GE_15_GIT_REPO\SRC\BIN\RELEASE\INTERMEDIATE\LOGGER.OBJ|C:\USERS\RIAD\DOCUMENTS\VISUAL STUDIO 2013\PROJECTS\GE_15_GIT_REPO\SRC\BIN\RELEASE\INTERMEDIATE\MAIN.OBJ|C:\USERS\RIAD\DOCUMENTS\VISUAL STUDIO 2013\PROJECTS\GE_15_GIT_REPO\SRC\BIN\RELEASE\INTERMEDIATE\MENUWINDOW.OBJ|C:\USERS\RIAD\DOCUMENTS\VISUAL STUDIO 2013\PROJECTS\GE_15_GIT_REPO\SRC\BIN\RELEASE\INTERMEDIATE\MESH.OBJ|C:\USERS\RIAD\DOCUMENTS\VISUAL STUDIO 2013\PROJECTS\GE_15_GIT_REPO\SRC\BIN\RELEASE\INTERMEDIATE\MODEL.OBJ|C:\USERS\RIAD\DOCUMENTS\VISUAL STUDIO 2013\PROJECTS\GE_15_GIT_REPO\SRC\BIN\RELEASE\INTERMEDIATE\OBJECTMANAGER.OBJ|C:\USERS\RIAD\DOCUMENTS\VISUAL STUDIO 2013\PROJECTS\GE_15_GIT_REPO\SRC\BIN\RELEASE\INTERMEDIATE\PANEL.OBJ|C:\USERS\RIAD\DOCUMENTS\VISUAL STUDIO 2013\PROJECTS\GE_15_GIT_REPO\SRC\BIN\RELEASE\INTERMEDIATE\POINTLIGHT.OBJ|C:\USERS\RIAD\DOCUMENTS\VISUAL STUDIO 2013\PROJECTS\GE_15_GIT_REPO\SRC\BIN\RELEASE\INTERMEDIATE\RAY.OBJ|C:\USERS\RIAD\DOCUMENTS\VISUAL STUDIO 2013\PROJECTS\GE_15_GIT_REPO\SRC\BIN\RELEASE\INTERMEDIATE\RENDERER.OBJ|C:\USERS\RIAD\DOCUMENTS\VISUAL STUDIO 2013\PROJECTS\GE_15_GIT_REPO\SRC\BIN\RELEASE\INTERMEDIATE\RENDERSHADER.OBJ|C:\USERS\RIAD\DOCUMENTS\VISUAL STUDIO 2013\PROJECTS\GE_15_GIT_REPO\SRC\BIN\RELEASE\INTERMEDIATE\SCENECAMERA.OBJ|C:\USERS\RIAD\DOCUMENTS\VISUAL STUDIO 2013\PROJECTS\GE_15_GIT_REPO\SRC\BIN\RELEASE\INTERMEDIATE\SCENESHADER.OBJ|C:\USERS\RIAD\DOCUMENTS\VISUAL STUDIO 2013\PROJECTS\GE_15_GIT_REPO\SRC\BIN\RELEASE\INTERMEDIATE\SHADER.OBJ|C:\USERS\RIAD\DOCUMENTS\VISUAL STUDIO 2013\PROJECTS\GE_15_GIT_REPO\SRC\BIN\RELEASE\INTERMEDIATE\SPRITE.OBJ|C:\USERS\RIAD\DOCUMENTS\VISUAL STUDIO 2013\PROJECTS\GE_15_GIT_REPO\SRC\BIN\RELEASE\INTERMEDIATE\TIMER.OBJ|C:\USERS\RIAD\DOCUMENTS\VISUAL STUDIO 2013\PROJECTS\GE_15_GIT_REPO\SRC\BIN\RELEASE\INTERMEDIATE\WINDOW.OBJ
C:\USERS\RIAD\DOCUMENTS\VISUAL STUDIO 2013\PROJECTS\GE_15_GIT_REPO\SRC\DEPENDENCIES\GLFW\LIB\GLFW3.LIB
C:\USERS\RIAD\DOCUMENTS\VISUAL STUDIO 2013\PROJECTS\GE_15_GIT_REPO\SRC\DEPENDENCIES\GLEW\LIB\GLEW32S.LIB
C:\PROGRAM FILES (X86)\WINDOWS KITS\8.1\LIB\WINV6.3\UM\X86\OPENGL32.LIB
C:\USERS\RIAD\DOCUMENTS\VISUAL STUDIO 2013\PROJECTS\GE_15_GIT_REPO\SRC\DEPENDENCIES\ASSIMP\LIB\ASSIMPD.LIB
C:\USERS\RIAD\DOCUMENTS\VISUAL STUDIO 2013\PROJECTS\GE_15_GIT_REPO\SRC\DEPENDENCIES\SOIL\LIB\SOIL.LIB
C:\PROGRAM FILES (X86)\WINDOWS KITS\8.1\LIB\WINV6.3\UM\X86\KERNEL32.LIB
C:\PROGRAM FILES (X86)\WINDOWS KITS\8.1\LIB\WINV6.3\UM\X86\USER32.LIB
C:\PROGRAM FILES (X86)\WINDOWS KITS\8.1\LIB\WINV6.3\UM\X86\GDI32.LIB
C:\PROGRAM FILES (X86)\WINDOWS KITS\8.1\LIB\WINV6.3\UM\X86\WINSPOOL.LIB
C:\PROGRAM FILES (X86)\WINDOWS KITS\8.1\LIB\WINV6.3\UM\X86\COMDLG32.LIB
C:\PROGRAM FILES (X86)\WINDOWS KITS\8.1\LIB\WINV6.3\UM\X86\ADVAPI32.LIB
C:\PROGRAM FILES (X86)\WINDOWS KITS\8.1\LIB\WINV6.3\UM\X86\SHELL32.LIB
C:\PROGRAM FILES (X86)\WINDOWS KITS\8.1\LIB\WINV6.3\UM\X86\OLE32.LIB
C:\PROGRAM FILES (X86)\WINDOWS KITS\8.1\LIB\WINV6.3\UM\X86\OLEAUT32.LIB
C:\PROGRAM FILES (X86)\WINDOWS KITS\8.1\LIB\WINV6.3\UM\X86\UUID.LIB
C:\PROGRAM FILES (X86)\WINDOWS KITS\8.1\LIB\WINV6.3\UM\X86\ODBC32.LIB
C:\PROGRAM FILES (X86)\WINDOWS KITS\8.1\LIB\WINV6.3\UM\X86\ODBCCP32.LIB
C:\USERS\RIAD\DOCUMENTS\VISUAL STUDIO 2013\PROJECTS\GE_15_GIT_REPO\SRC\BIN\RELEASE\INTERMEDIATE\BOUNDINGVOLUME.OBJ
C:\USERS\RIAD\DOCUMENTS\VISUAL STUDIO 2013\PROJECTS\GE_15_GIT_REPO\SRC\BIN\RELEASE\INTERMEDIATE\BUTTON.OBJ
C:\USERS\RIAD\DOCUMENTS\VISUAL STUDIO 2013\PROJECTS\GE_15_GIT_REPO\SRC\BIN\RELEASE\INTERMEDIATE\CAMERA.OBJ
C:\USERS\RIAD\DOCUMENTS\VISUAL STUDIO 2013\PROJECTS\GE_15_GIT_REPO\SRC\BIN\RELEASE\INTERMEDIATE\DIRECTIONALLIGHT.OBJ
C:\USERS\RIAD\DOCUMENTS\VISUAL STUDIO 2013\PROJECTS\GE_15_GIT_REPO\SRC\BIN\RELEASE\INTERMEDIATE\DRAWABLE.OBJ
C:\USERS\RIAD\DOCUMENTS\VISUAL STUDIO 2013\PROJECTS\GE_15_GIT_REPO\SRC\BIN\RELEASE\INTERMEDIATE\GIZMO.OBJ
C:\USERS\RIAD\DOCUMENTS\VISUAL STUDIO 2013\PROJECTS\GE_15_GIT_REPO\SRC\BIN\RELEASE\INTERMEDIATE\IBO.OBJ
C:\USERS\RIAD\DOCUMENTS\VISUAL STUDIO 2013\PROJECTS\GE_15_GIT_REPO\SRC\BIN\RELEASE\INTERMEDIATE\INPUT.OBJ
C:\USERS\RIAD\DOCUMENTS\VISUAL STUDIO 2013\PROJECTS\GE_15_GIT_REPO\SRC\BIN\RELEASE\INTERMEDIATE\LIGHT.OBJ
C:\USERS\RIAD\DOCUMENTS\VISUAL STUDIO 2013\PROJECTS\GE_15_GIT_REPO\SRC\BIN\RELEASE\INTERMEDIATE\LOGGER.OBJ
C:\USERS\RIAD\DOCUMENTS\VISUAL STUDIO 2013\PROJECTS\GE_15_GIT_REPO\SRC\BIN\RELEASE\INTERMEDIATE\MAIN.OBJ
C:\USERS\RIAD\DOCUMENTS\VISUAL STUDIO 2013\PROJECTS\GE_15_GIT_REPO\SRC\BIN\RELEASE\INTERMEDIATE\MENUWINDOW.OBJ
C:\USERS\RIAD\DOCUMENTS\VISUAL STUDIO 2013\PROJECTS\GE_15_GIT_REPO\SRC\BIN\RELEASE\INTERMEDIATE\MESH.OBJ
C:\USERS\RIAD\DOCUMENTS\VISUAL STUDIO 2013\PROJECTS\GE_15_GIT_REPO\SRC\BIN\RELEASE\INTERMEDIATE\MODEL.OBJ
C:\USERS\RIAD\DOCUMENTS\VISUAL STUDIO 2013\PROJECTS\GE_15_GIT_REPO\SRC\BIN\RELEASE\INTERMEDIATE\OBJECTMANAGER.OBJ
C:\USERS\RIAD\DOCUMENTS\VISUAL STUDIO 2013\PROJECTS\GE_15_GIT_REPO\SRC\BIN\RELEASE\INTERMEDIATE\PANEL.OBJ
C:\USERS\RIAD\DOCUMENTS\VISUAL STUDIO 2013\PROJECTS\GE_15_GIT_REPO\SRC\BIN\RELEASE\INTERMEDIATE\POINTLIGHT.OBJ
C:\USERS\RIAD\DOCUMENTS\VISUAL STUDIO 2013\PROJECTS\GE_15_GIT_REPO\SRC\BIN\RELEASE\INTERMEDIATE\RAY.OBJ
C:\USERS\RIAD\DOCUMENTS\VISUAL STUDIO 2013\PROJECTS\GE_15_GIT_REPO\SRC\BIN\RELEASE\INTERMEDIATE\RENDERER.OBJ
C:\USERS\RIAD\DOCUMENTS\VISUAL STUDIO 2013\PROJECTS\GE_15_GIT_REPO\SRC\BIN\RELEASE\INTERMEDIATE\RENDERSHADER.OBJ
C:\USERS\RIAD\DOCUMENTS\VISUAL STUDIO 2013\PROJECTS\GE_15_GIT_REPO\SRC\BIN\RELEASE\INTERMEDIATE\SCENECAMERA.OBJ
C:\USERS\RIAD\DOCUMENTS\VISUAL STUDIO 2013\PROJECTS\GE_15_GIT_REPO\SRC\BIN\RELEASE\INTERMEDIATE\SCENESHADER.OBJ
C:\USERS\RIAD\DOCUMENTS\VISUAL STUDIO 2013\PROJECTS\GE_15_GIT_REPO\SRC\BIN\RELEASE\INTERMEDIATE\SHADER.OBJ
C:\USERS\RIAD\DOCUMENTS\VISUAL STUDIO 2013\PROJECTS\GE_15_GIT_REPO\SRC\BIN\RELEASE\INTERMEDIATE\SPRITE.OBJ
C:\USERS\RIAD\DOCUMENTS\VISUAL STUDIO 2013\PROJECTS\GE_15_GIT_REPO\SRC\BIN\RELEASE\INTERMEDIATE\TIMER.OBJ
C:\USERS\RIAD\DOCUMENTS\VISUAL STUDIO 2013\PROJECTS\GE_15_GIT_REPO\SRC\BIN\RELEASE\INTERMEDIATE\WINDOW.OBJ
C:\WINDOWS\GLOBALIZATION\SORTING\SORTDEFAULT.NLS
C:\PROGRAM FILES (X86)\MICROSOFT VISUAL STUDIO 12.0\VC\BIN\C2.DLL
C:\PROGRAM FILES (X86)\MICROSOFT VISUAL STUDIO 12.0\VC\BIN\1033\LINKUI.DLL
C:\PROGRAM FILES (X86)\MICROSOFT VISUAL STUDIO 12.0\VC\LIB\MSVCPRT.LIB
C:\PROGRAM FILES (X86)\MICROSOFT VISUAL STUDIO 12.0\VC\LIB\MSVCRT.LIB
C:\PROGRAM FILES (X86)\MICROSOFT VISUAL STUDIO 12.0\VC\LIB\OLDNAMES.LIB
C:\PROGRAM FILES (X86)\MICROSOFT VISUAL STUDIO 12.0\VC\LIB\LIBCMT.LIB
C:\PROGRAM FILES (X86)\MICROSOFT VISUAL STUDIO 12.0\VC\LIB\MSVCRTD.LIB
C:\PROGRAM FILES (X86)\WINDOWS KITS\8.1\BIN\X86\RC.EXE
C:\PROGRAM FILES (X86)\MICROSOFT VISUAL STUDIO 12.0\VC\BIN\CVTRES.EXE
C:\WINDOWS\SYSTEM32\TZRES.DLL
C:\PROGRAM FILES (X86)\MICROSOFT VISUAL STUDIO 12.0\VC\BIN\1033\CLUI.DLL
